A_0 = ( 0/3518310084608,  0*sqrt(1)/3518310084608)
A_1 = ( 14857823487299584/3518310084608,  0*sqrt(1)/3518310084608)
A_2 = ( 6919142937366528/3518310084608,  -18293496191139840*sqrt(1)/3518310084608)
A_3 = ( -25277684958851072/3518310084608,  -11049209914490880*sqrt(1)/3518310084608)
A_4 = ( 20605197541609472/3518310084608,  -32797514983833600*sqrt(1)/3518310084608)
A_5 = ( 6257357391695872/3518310084608,  -38224293758238720*sqrt(1)/3518310084608)
