A_0 = ( 0/787152230656,  0*sqrt(35)/787152230656)
A_1 = ( 1523926718550016/787152230656,  0*sqrt(35)/787152230656)
A_2 = ( 595910018253440/787152230656,  377296376012160*sqrt(35)/787152230656)
A_3 = ( -2802905974778624/787152230656,  600024677640960*sqrt(35)/787152230656)
A_4 = ( 3532739211184128/787152230656,  -207808188893184*sqrt(35)/787152230656)
A_5 = ( 3264320300530432/787152230656,  337688306951424*sqrt(35)/787152230656)
