A_0 = ( 0/11466431048000,  0*sqrt(2002)/11466431048000)
A_1 = ( 66275971457440000/11466431048000,  0*sqrt(2002)/11466431048000)
A_2 = ( -35603268404040000/11466431048000,  -1719964657200000*sqrt(2002)/11466431048000)
A_3 = ( 39261059908352000/11466431048000,  2201554761216000*sqrt(2002)/11466431048000)
A_4 = ( -164497419814608000/11466431048000,  -1238374553184000*sqrt(2002)/11466431048000)
A_5 = ( 61345406106800000/11466431048000,  -3439929314400000*sqrt(2002)/11466431048000)
