0		5780		5916		9248		15138		14450
5780		0		10744		8908		20698		13430
5916		10744		0		8636		13746		20066
9248		8908		8636		0		22270		22098
15138		20698		13746		22270		0		21488
14450		13430		20066		22098		21488		0