A_0 = ( 0/950431157676,  0*sqrt(17)/950431157676)
A_1 = ( 1683213580244196/950431157676,  0*sqrt(17)/950431157676)
A_2 = ( -3137200445823444/950431157676,  -508048655194080*sqrt(17)/950431157676)
A_3 = ( 762480310430124/950431157676,  -1463417117585280*sqrt(17)/950431157676)
A_4 = ( -3899680756253568/950431157676,  955368462391200*sqrt(17)/950431157676)
A_5 = ( -4820414026067640/950431157676,  -508048655194080*sqrt(17)/950431157676)
