A_0 = ( 0/17132196977600,  0*sqrt(2002)/17132196977600)
A_1 = ( 147953653098553600/17132196977600,  0*sqrt(2002)/17132196977600)
A_2 = ( 38187801962259200/17132196977600,  3302332141824000*sqrt(2002)/17132196977600)
A_3 = ( 227433945982811200/17132196977600,  3839627675568000*sqrt(2002)/17132196977600)
A_4 = ( 76375603924518400/17132196977600,  6604664283648000*sqrt(2002)/17132196977600)
A_5 = ( 378492288041104000/17132196977600,  1074591067488000*sqrt(2002)/17132196977600)
