A_0 = ( 0/964014849280,  0*sqrt(1218151)/964014849280)
A_1 = ( 1585804427065600/964014849280,  0*sqrt(1218151)/964014849280)
A_2 = ( -1666925251084800/964014849280,  -2953577410560*sqrt(1218151)/964014849280)
A_3 = ( -8091263783366400/964014849280,  -5907154821120*sqrt(1218151)/964014849280)
A_4 = ( -4838534105216000/964014849280,  -2953577410560*sqrt(1218151)/964014849280)
A_5 = ( -6505459356300800/964014849280,  -5907154821120*sqrt(1218151)/964014849280)
A_6 = ( -3252729678150400/964014849280,  -2953577410560*sqrt(1218151)/964014849280)
