A_0 = ( 0/283115520000,  0*sqrt(663)/283115520000)
A_1 = ( 217432719360000/283115520000,  0*sqrt(663)/283115520000)
A_2 = ( -16137584640000/283115520000,  21233664000000*sqrt(663)/283115520000)
A_3 = ( -1012704215040000/283115520000,  -69363302400000*sqrt(663)/283115520000)
A_4 = ( 170718658560000/283115520000,  38220595200000*sqrt(663)/283115520000)
A_5 = ( -206886666240000/283115520000,  3892838400000*sqrt(663)/283115520000)
A_6 = ( 601054248960000/283115520000,  15571353600000*sqrt(663)/283115520000)
