A_0 = ( 0/2981720458080,  0*sqrt(17)/2981720458080)
A_1 = ( 10227301171214400/2981720458080,  0*sqrt(17)/2981720458080)
A_2 = ( 2862451639756800/2981720458080,  -3578064549696000*sqrt(17)/2981720458080)
A_3 = ( -2099131202488320/2981720458080,  -10233264612130560*sqrt(17)/2981720458080)
A_4 = ( 20177363191265280/2981720458080,  -3968000563887360*sqrt(17)/2981720458080)
A_5 = ( 16858708321422240/2981720458080,  -6723110267153280*sqrt(17)/2981720458080)
