A_0 = ( 0/1773055137280,  0*sqrt(13)/1773055137280)
A_1 = ( 6081579120870400/1773055137280,  0*sqrt(13)/1773055137280)
A_2 = ( -5124129346739200/1773055137280,  -1063833082368000*sqrt(13)/1773055137280)
A_3 = ( 5968103592084480/1773055137280,  1872346224967680*sqrt(13)/1773055137280)
A_4 = ( -2570929949056000/1773055137280,  -3191499247104000*sqrt(13)/1773055137280)
A_5 = ( 11505354785809920/1773055137280,  -2829795999098880*sqrt(13)/1773055137280)
