A_0 = ( 0/701043882816,  0*sqrt(42)/701043882816)
A_1 = ( 1478501548858944/701043882816,  0*sqrt(42)/701043882816)
A_2 = ( -991977094184640/701043882816,  -364542819064320*sqrt(42)/701043882816)
A_3 = ( -4082178529637568/701043882816,  252375797813760*sqrt(42)/701043882816)
A_4 = ( -1611699886593984/701043882816,  616918616878080*sqrt(42)/701043882816)
A_5 = ( -2603676980778624/701043882816,  252375797813760*sqrt(42)/701043882816)
