A_0 = ( 0/2965388087520,  0*sqrt(3003)/2965388087520)
A_1 = ( 12691861014585600/2965388087520,  0*sqrt(3003)/2965388087520)
A_2 = ( -542084027961600/2965388087520,  -266053510656000*sqrt(3003)/2965388087520)
A_3 = ( 9042950972892240/2965388087520,  -475944788046960*sqrt(3003)/2965388087520)
A_4 = ( 38075583043756800/2965388087520,  0*sqrt(3003)/2965388087520)
A_5 = ( 29032632070864560/2965388087520,  -475944788046960*sqrt(3003)/2965388087520)
A_6 = ( 16340771056278960/2965388087520,  -475944788046960*sqrt(3003)/2965388087520)
