A_0 = ( 0/672892803200,  0*sqrt(1)/672892803200)
A_1 = ( 538314242560000/672892803200,  0*sqrt(1)/672892803200)
A_2 = ( -1145532708167680/672892803200,  -624579099930240*sqrt(1)/672892803200)
A_3 = ( 2661425615216640/672892803200,  8359751029835520*sqrt(1)/672892803200)
A_4 = ( 2859525256478720/672892803200,  -751755839735040*sqrt(1)/672892803200)
A_5 = ( -450030706780160/672892803200,  2113960030533120*sqrt(1)/672892803200)
