A_0 = ( 0/250371295416,  0*sqrt(455)/250371295416)
A_1 = ( 203802234468624/250371295416,  0*sqrt(455)/250371295416)
A_2 = ( -338231319731712/250371295416,  -19055285618688*sqrt(455)/250371295416)
A_3 = ( 1398824427489192/250371295416,  27791213791176*sqrt(455)/250371295416)
A_4 = ( -585931424097294/250371295416,  71793968960538*sqrt(455)/250371295416)
A_5 = ( 53369686674216/250371295416,  41757872000328*sqrt(455)/250371295416)
