A_0 = ( 0/1436878776320,  0*sqrt(1)/1436878776320)
A_1 = ( 3908310271590400/1436878776320,  0*sqrt(1)/1436878776320)
A_2 = ( 1954155135795200/1436878776320,  7694485847193600*sqrt(1)/1436878776320)
A_3 = ( 14887281243521024/1436878776320,  7143890804563968*sqrt(1)/1436878776320)
A_4 = ( 661031854931968/1436878776320,  15527216337125376*sqrt(1)/1436878776320)
A_5 = ( 12636148621344768/1436878776320,  9928460446334976*sqrt(1)/1436878776320)
