A_0 = ( 0/11736229425600,  0*sqrt(2002)/11736229425600)
A_1 = ( 69431533281849600/11736229425600,  0*sqrt(2002)/11736229425600)
A_2 = ( -32133105800856000/11736229425600,  1801856400048000*sqrt(2002)/11736229425600)
A_3 = ( 45572183557171200/11736229425600,  -2201554761216000*sqrt(2002)/11736229425600)
A_4 = ( 74596854961987200/11736229425600,  3603712800096000*sqrt(2002)/11736229425600)
A_5 = ( -157557094608240000/11736229425600,  1402158038880000*sqrt(2002)/11736229425600)
A_6 = ( -46645441503264000/11736229425600,  -1100777380608000*sqrt(2002)/11736229425600)
