A_0 = ( 0/692157862800,  0*sqrt(231)/692157862800)
A_1 = ( 1176668366760000/692157862800,  0*sqrt(231)/692157862800)
A_2 = ( -917801326072800/692157862800,  -70600102005600*sqrt(231)/692157862800)
A_3 = ( -4033383827579928/692157862800,  211094304996744*sqrt(231)/692157862800)
A_4 = ( 648897996375000/692157862800,  -129779599275000*sqrt(231)/692157862800)
A_5 = ( -2680921206825984/692157862800,  -90368130567168*sqrt(231)/692157862800)
