A_0 = ( 0/1386154984500,  0*sqrt(21)/1386154984500)
A_1 = ( 3888164731522500/1386154984500,  0*sqrt(21)/1386154984500)
A_2 = ( -3946464779400000/1386154984500,  -1183939433820000*sqrt(21)/1386154984500)
A_3 = ( 905522421960000/1386154984500,  -3224478172500000*sqrt(21)/1386154984500)
A_4 = ( 4242449637855000/1386154984500,  -1578585911760000*sqrt(21)/1386154984500)
A_5 = ( -28513208031165000/1386154984500,  0*sqrt(21)/1386154984500)
