A_0 = ( 0/1390364352000,  0*sqrt(11)/1390364352000)
A_1 = ( 3378585375360000/1390364352000,  0*sqrt(11)/1390364352000)
A_2 = ( 1188761520960000/1390364352000,  1251327916800000*sqrt(11)/1390364352000)
A_3 = ( -5608451723097600/1390364352000,  1621720980172800*sqrt(11)/1390364352000)
A_4 = ( 9156064207680000/1390364352000,  -684883180800000*sqrt(11)/1390364352000)
A_5 = ( 5680153327680000/1390364352000,  2624183976960000*sqrt(11)/1390364352000)
