A_0 = ( 0/2203709773200,  0*sqrt(1)/2203709773200)
A_1 = ( 5626071050979600/2203709773200,  0*sqrt(1)/2203709773200)
A_2 = ( -4388896472360400/2203709773200,  -4952986614576000*sqrt(1)/2203709773200)
A_3 = ( -26116283641640400/2203709773200,  -6356213702592000*sqrt(1)/2203709773200)
A_4 = ( 6179976480459600/2203709773200,  -8576600198400000*sqrt(1)/2203709773200)
A_5 = ( -9257903876660400/2203709773200,  5103077118048000*sqrt(1)/2203709773200)
