A_0 = ( 0/1525260515360,  0*sqrt(13990982082)/1525260515360)
A_1 = ( 4102950786318400/1525260515360,  0*sqrt(13990982082)/1525260515360)
A_2 = ( 100752245715360/1525260515360,  68041361280*sqrt(13990982082)/1525260515360)
A_3 = ( 8407406064067520/1525260515360,  136082722560*sqrt(13990982082)/1525260515360)
A_4 = ( 4304455277749120/1525260515360,  136082722560*sqrt(13990982082)/1525260515360)
A_5 = ( 8306653818352160/1525260515360,  68041361280*sqrt(13990982082)/1525260515360)
A_6 = ( 4203703032033760/1525260515360,  68041361280*sqrt(13990982082)/1525260515360)
