A_0 = ( 0/285868890000,  0*sqrt(1)/285868890000)
A_1 = ( 114633424890000/285868890000,  0*sqrt(1)/285868890000)
A_2 = ( -406973217420000/285868890000,  844090275600000*sqrt(1)/285868890000)
A_3 = ( -2625851897100000/285868890000,  1518027966000000*sqrt(1)/285868890000)
A_4 = ( -42915978000000/285868890000,  -1291414492800000*sqrt(1)/285868890000)
A_5 = ( 957500381250000/285868890000,  980879608800000*sqrt(1)/285868890000)
