A_0 = ( 0/1328639906880,  0*sqrt(14)/1328639906880)
A_1 = ( 2849932600257600/1328639906880,  0*sqrt(14)/1328639906880)
A_2 = ( -1890245775211200/1328639906880,  -2097206991475200*sqrt(14)/1328639906880)
A_3 = ( 619043993536320/1328639906880,  -4378379508518400*sqrt(14)/1328639906880)
A_4 = ( 7397458189228800/1328639906880,  -1888712729164800*sqrt(14)/1328639906880)
A_5 = ( 6188906889316800/1328639906880,  -3035431171872000*sqrt(14)/1328639906880)
