A_0 = ( 0/381260888064,  0*sqrt(247)/381260888064)
A_1 = ( 341609755705344/381260888064,  0*sqrt(247)/381260888064)
A_2 = ( -580088441189376/381260888064,  -48610763228160*sqrt(247)/381260888064)
A_3 = ( 1554591271080960/381260888064,  -140113376363520*sqrt(247)/381260888064)
A_4 = ( 67101916299264/381260888064,  91502613135360*sqrt(247)/381260888064)
A_5 = ( 1280083431674880/381260888064,  -48610763228160*sqrt(247)/381260888064)
