A_0 = ( 0/607941380288,  0*sqrt(455)/607941380288)
A_1 = ( 785460263332096/607941380288,  0*sqrt(455)/607941380288)
A_2 = ( -16128327206464/607941380288,  -165217010407680*sqrt(455)/607941380288)
A_3 = ( -3746099024076992/607941380288,  89689234221312*sqrt(455)/607941380288)
A_4 = ( -4547687614615552/607941380288,  -75527776186368*sqrt(455)/607941380288)
A_5 = ( -3762227351283456/607941380288,  -75527776186368*sqrt(455)/607941380288)
A_6 = ( -1881113675641728/607941380288,  -37763888093184*sqrt(455)/607941380288)
