A_0 = ( 0/675586974816,  0*sqrt(77)/675586974816)
A_1 = ( 685045192463424/675586974816,  0*sqrt(77)/675586974816)
A_2 = ( -3901358874875904/675586974816,  74834249518080*sqrt(77)/675586974816)
A_3 = ( 1216368364041792/675586974816,  879302431837440*sqrt(77)/675586974816)
A_4 = ( -2220429190561920/675586974816,  522453927191040*sqrt(77)/675586974816)
A_5 = ( -552612822656544/675586974816,  557792322796800*sqrt(77)/675586974816)
