A_0 = ( 0/4355403423800,  0*sqrt(1)/4355403423800)
A_1 = ( 21175971446515600/4355403423800,  0*sqrt(1)/4355403423800)
A_2 = ( -11630996450865000/4355403423800,  -18847269277452000*sqrt(1)/4355403423800)
A_3 = ( -32139861988350600/4355403423800,  26313337300404000*sqrt(1)/4355403423800)
A_4 = ( -10963890541835000/4355403423800,  26313337300404000*sqrt(1)/4355403423800)
A_5 = ( -6783846302039400/4355403423800,  5554026212196000*sqrt(1)/4355403423800)
