A_0 = ( 0/1078816613940,  0*sqrt(37)/1078816613940)
A_1 = ( 3543912576792900/1078816613940,  0*sqrt(37)/1078816613940)
A_2 = ( 710467242673500/1078816613940,  650245630320000*sqrt(37)/1078816613940)
A_3 = ( 5908205688636420/1078816613940,  1280274532860960*sqrt(37)/1078816613940)
A_4 = ( 2364293111843520/1078816613940,  1280274532860960*sqrt(37)/1078816613940)
A_5 = ( 5197738445962920/1078816613940,  630028902540960*sqrt(37)/1078816613940)
