A_0 = ( 0/1567837440000,  0*sqrt(1)/1567837440000)
A_1 = ( 4728597719040000/1567837440000,  0*sqrt(1)/1567837440000)
A_2 = ( -3954356340480000/1567837440000,  2674838799360000*sqrt(1)/1567837440000)
A_3 = ( -7049321510400000/1567837440000,  11217065932800000*sqrt(1)/1567837440000)
A_4 = ( -4090974451200000/1567837440000,  -6409751961600000*sqrt(1)/1567837440000)
A_5 = ( -7738791540480000/1567837440000,  -1298818160640000*sqrt(1)/1567837440000)
A_6 = ( -3001057113600000/1567837440000,  -12903842764800000*sqrt(1)/1567837440000)
