A_0 = ( 0/274190751000,  0*sqrt(14)/274190751000)
A_1 = ( 216610693290000/274190751000,  0*sqrt(14)/274190751000)
A_2 = ( 25993283194800/274190751000,  -103973132779200*sqrt(14)/274190751000)
A_3 = ( -1755046406385000/274190751000,  185859679950000*sqrt(14)/274190751000)
A_4 = ( 332948093554800/274190751000,  -207263218219200*sqrt(14)/274190751000)
A_5 = ( -385891203880800/274190751000,  -146422025956800*sqrt(14)/274190751000)
