0		5780		5916		15138		14450		7395		9248
5780		0		10744		20698		13430		11135		8908
5916		10744		0		13746		20066		11049		8636
15138		20698		13746		0		21488		11397		22270
14450		13430		20066		21488		0		10795		22098
7395		11135		11049		11397		10795		0		16637
9248		8908		8636		22270		22098		16637		0