A_0 = ( 0/1974930005196,  0*sqrt(91)/1974930005196)
A_1 = ( 4840553442735396/1974930005196,  0*sqrt(91)/1974930005196)
A_2 = ( -8259570639172620/1974930005196,  345566822304528*sqrt(91)/1974930005196)
A_3 = ( -7369474278691260/1974930005196,  -1256606626561920*sqrt(91)/1974930005196)
A_4 = ( -890096360481360/1974930005196,  1602173448866448*sqrt(91)/1974930005196)
A_5 = ( -4313936060419644/1974930005196,  852434904568320*sqrt(91)/1974930005196)
