A_0 = ( 0/2702413736032,  0*sqrt(693878766)/2702413736032)
A_1 = ( 11344732863862336/2702413736032,  0*sqrt(693878766)/2702413736032)
A_2 = ( 687132788465440/2702413736032,  463491636480*sqrt(693878766)/2702413736032)
A_3 = ( 24063731304655552/2702413736032,  926983272960*sqrt(693878766)/2702413736032)
A_4 = ( 12718998440793216/2702413736032,  926983272960*sqrt(693878766)/2702413736032)
A_5 = ( 23376598516190112/2702413736032,  463491636480*sqrt(693878766)/2702413736032)
