A_0 = ( 0/660216332204,  0*sqrt(555)/660216332204)
A_1 = ( 672760442515876/660216332204,  0*sqrt(555)/660216332204)
A_2 = ( -1350656836813284/660216332204,  -24801846120480*sqrt(555)/660216332204)
A_3 = ( -3109613741431912/660216332204,  -318489913629888*sqrt(555)/660216332204)
A_4 = ( -1086196462102752/660216332204,  -293688067509408*sqrt(555)/660216332204)
A_5 = ( -2436853298916036/660216332204,  -318489913629888*sqrt(555)/660216332204)
