A_0 = ( 0/1314249120000,  0*sqrt(91)/1314249120000)
A_1 = ( 3187054116000000/1314249120000,  0*sqrt(91)/1314249120000)
A_2 = ( -5447752287840000/1314249120000,  -132346241280000*sqrt(91)/1314249120000)
A_3 = ( -1402303811040000/1314249120000,  -1529785975680000*sqrt(91)/1314249120000)
A_4 = ( -2753614756224000/1314249120000,  -917871585408000*sqrt(91)/1314249120000)
A_5 = ( 1396044191520000/1314249120000,  -1102831148160000*sqrt(91)/1314249120000)
