A_0 = ( 0/708189397740,  0*sqrt(442)/708189397740)
A_1 = ( 732976026660900/708189397740,  0*sqrt(442)/708189397740)
A_2 = ( -393784095986820/708189397740,  -70203122906400*sqrt(442)/708189397740)
A_3 = ( -7479157438688760/708189397740,  -142253696415600*sqrt(442)/708189397740)
A_4 = ( 1658548778663700/708189397740,  -70203122906400*sqrt(442)/708189397740)
A_5 = ( -687775068579060/708189397740,  -110847036168000*sqrt(442)/708189397740)
