A_0 = ( 0/382296754944,  0*sqrt(30)/382296754944)
A_1 = ( 360888136667136/382296754944,  0*sqrt(30)/382296754944)
A_2 = ( -41612029834752/382296754944,  66714023540736*sqrt(30)/382296754944)
A_3 = ( -1533774580835328/382296754944,  -541332205000704*sqrt(30)/382296754944)
A_4 = ( 352296179089920/382296754944,  70757297694720*sqrt(30)/382296754944)
A_5 = ( 1174344355521792/382296754944,  -513534695192064*sqrt(30)/382296754944)
