A_0 = ( 0/10675293409280,  0*sqrt(2002)/10675293409280)
A_1 = ( 61703195905638400/10675293409280,  0*sqrt(2002)/10675293409280)
A_2 = ( -43427093588951040/10675293409280,  1024828167290880*sqrt(2002)/10675293409280)
A_3 = ( 57112819739648000/10675293409280,  -3202588022784000*sqrt(2002)/10675293409280)
A_4 = ( -33146786035814400/10675293409280,  -1601294011392000*sqrt(2002)/10675293409280)
A_5 = ( -123406391811276800/10675293409280,  0*sqrt(2002)/10675293409280)
