A_0 = ( 0/1213888780800,  0*sqrt(506)/1213888780800)
A_1 = ( 2206849803494400/1213888780800,  0*sqrt(506)/1213888780800)
A_2 = ( -1717127808230400/1213888780800,  249668477952000*sqrt(506)/1213888780800)
A_3 = ( 7031757239654400/1213888780800,  185087992320000*sqrt(506)/1213888780800)
A_4 = ( 10981787388480000/1213888780800,  480916293811200*sqrt(506)/1213888780800)
A_5 = ( -4954192600665600/1213888780800,  -130402903680000*sqrt(506)/1213888780800)
