A_0 = ( 0/390635520000,  0*sqrt(39)/390635520000)
A_1 = ( 322274304000000/390635520000,  0*sqrt(39)/390635520000)
A_2 = ( -38672916480000/390635520000,  -154691665920000*sqrt(39)/390635520000)
A_3 = ( -1315411845120000/390635520000,  65200619520000*sqrt(39)/390635520000)
A_4 = ( -2353135104000000/390635520000,  -379537920000000*sqrt(39)/390635520000)
A_5 = ( 1126182317260800/390635520000,  -491854154956800*sqrt(39)/390635520000)
