A_0 = ( 0/668481848496,  0*sqrt(6)/668481848496)
A_1 = ( 1536839769692304/668481848496,  0*sqrt(6)/668481848496)
A_2 = ( 441286414301376/668481848496,  -617213157966720*sqrt(6)/668481848496)
A_3 = ( -1647056405043504/668481848496,  -927919101432960*sqrt(6)/668481848496)
A_4 = ( 2061680890412304/668481848496,  -1435965306289920*sqrt(6)/668481848496)
A_5 = ( -1520243740990800/668481848496,  373907863687680*sqrt(6)/668481848496)
